{
  "index_patterns" : ["logs-bitwarden.audit"],
  "data_stream": { },
  "priority" : 500,
  "template": {
    "settings": {
      "index.lifecycle.name": "logs",
      "default_pipeline": "logs-bitwarden.audit"
    },
    "mappings": {
      "date_detection": false,
      "properties": {
        "@timestamp": {
          "type": "date"
        },
        "bitwarden": {
          "properties": {
            "actingUserId": {
              "type": "keyword"
            },
            "client": {
              "properties": {
                "id": {
                  "type": "short"
                },
                "description": {
                  "type": "keyword"
                }
              }
            },
            "collectionId": {
              "type": "keyword"
            },
            "event": {
              "properties": {
                "id": {
                  "type": "short"
                },
                "description": {
                  "type": "keyword"
                }
              }
            },
            "groupId": {
              "type": "keyword"
            },
            "itemId": {
              "type": "keyword"
            },
            "member": {
              "properties": {
                "email": {
                  "type": "keyword"
                },
                "id": {
                  "type": "keyword"
                }
              }
            },
            "memberId": {
              "type": "keyword"
            },
            "policyId": {
              "type": "keyword"
            }
          }
        },
        "data_stream": {
          "properties": {
            "dataset": {
              "type": "keyword"
            },
            "type": {
              "type": "keyword"
            }
          }
        },
        "source": {
          "properties": {
            "ip": {
              "type": "ip"
            }
          }
        },
        "user": {
          "properties": {
            "email": {
              "type": "keyword"
            },
            "userId": {
              "type": "keyword"
            }
          }
        }
      }
    }
  }
}
